EESchema Schematic File Version 4
EELAYER 30 0
EELAYER END
$Descr A4 11693 8268
encoding utf-8
Sheet 5 5
Title ""
Date "2020-07-31"
Rev ""
Comp ""
Comment1 ""
Comment2 ""
Comment3 ""
Comment4 ""
$EndDescr
$Comp
L SilentWorks:ESP32-WROVER U302
U 1 1 5F246912
P 8950 2900
F 0 "U302" H 8925 4237 60  0000 C CNN
F 1 "ESP32-WROVER" H 8925 4131 60  0000 C CNN
F 2 "SilentWorks:ESP32-WROVER" H 9400 2600 60  0001 C CNN
F 3 "" H 9400 2600 60  0001 C CNN
F 4 "" H 8950 2900 50  0001 C CNN "DNP"
F 5 "1904-1015-1-ND" H 8950 2900 50  0001 C CNN "Partnumber"
F 6 "DigiKey" H 8950 2900 50  0001 C CNN "Supplier"
	1    8950 2900
	1    0    0    -1  
$EndComp
Wire Wire Line
	9800 2350 9900 2350
Wire Wire Line
	9900 2350 9900 2400
Wire Wire Line
	9800 2100 9900 2100
Wire Wire Line
	9900 2100 9900 1900
$Comp
L power:GND #PWR0158
U 1 1 5F255DE0
P 9900 2400
F 0 "#PWR0158" H 9900 2150 50  0001 C CNN
F 1 "GND" H 9905 2227 50  0000 C CNN
F 2 "" H 9900 2400 50  0001 C CNN
F 3 "" H 9900 2400 50  0001 C CNN
	1    9900 2400
	1    0    0    -1  
$EndComp
$Comp
L Device:C_Small C304
U 1 1 5F2565BF
P 10350 2050
F 0 "C304" H 10442 2096 50  0000 L CNN
F 1 "100n" H 10442 2005 50  0000 L CNN
F 2 "Capacitor_SMD:C_0603_1608Metric" H 10350 2050 50  0001 C CNN
F 3 "~" H 10350 2050 50  0001 C CNN
F 4 "" H 10350 2050 50  0001 C CNN "DNP"
F 5 "133-5641" H 10350 2050 50  0001 C CNN "Partnumber"
F 6 "RS-Components" H 10350 2050 50  0001 C CNN "Supplier"
	1    10350 2050
	1    0    0    -1  
$EndComp
$Comp
L Device:C_Small C303
U 1 1 5F258144
P 10000 2050
F 0 "C303" H 10092 2096 50  0000 L CNN
F 1 "2.2u" H 10092 2005 50  0000 L CNN
F 2 "Capacitor_SMD:C_0603_1608Metric" H 10000 2050 50  0001 C CNN
F 3 "~" H 10000 2050 50  0001 C CNN
F 4 "" H 10000 2050 50  0001 C CNN "DNP"
F 5 "" H 10000 2050 50  0001 C CNN "Partnumber"
F 6 "RS-Components" H 10000 2050 50  0001 C CNN "Supplier"
	1    10000 2050
	1    0    0    -1  
$EndComp
$Comp
L power:GND #PWR0159
U 1 1 5F259AEA
P 10000 2150
F 0 "#PWR0159" H 10000 1900 50  0001 C CNN
F 1 "GND" H 10005 1977 50  0000 C CNN
F 2 "" H 10000 2150 50  0001 C CNN
F 3 "" H 10000 2150 50  0001 C CNN
	1    10000 2150
	1    0    0    -1  
$EndComp
$Comp
L power:GND #PWR0160
U 1 1 5F259FFB
P 10350 2150
F 0 "#PWR0160" H 10350 1900 50  0001 C CNN
F 1 "GND" H 10355 1977 50  0000 C CNN
F 2 "" H 10350 2150 50  0001 C CNN
F 3 "" H 10350 2150 50  0001 C CNN
	1    10350 2150
	1    0    0    -1  
$EndComp
Wire Wire Line
	9900 1900 10000 1900
Wire Wire Line
	10000 1900 10000 1950
Connection ~ 9900 1900
Wire Wire Line
	9900 1900 9900 1850
Wire Wire Line
	10000 1900 10350 1900
Wire Wire Line
	10350 1900 10350 1950
Connection ~ 10000 1900
NoConn ~ 8050 3650
NoConn ~ 8050 3750
NoConn ~ 8050 3850
NoConn ~ 8050 3950
NoConn ~ 8050 4050
NoConn ~ 8050 4150
Wire Wire Line
	9800 2700 10250 2700
Wire Wire Line
	9800 2800 10250 2800
Text Label 10250 2700 2    50   ~ 0
TXD0
Text Label 10250 2800 2    50   ~ 0
RXD0
$Comp
L power:+3.3V #PWR0161
U 1 1 5F254EEA
P 9900 1850
F 0 "#PWR0161" H 9900 1700 50  0001 C CNN
F 1 "+3.3V" H 9915 2023 50  0000 C CNN
F 2 "" H 9900 1850 50  0001 C CNN
F 3 "" H 9900 1850 50  0001 C CNN
	1    9900 1850
	1    0    0    -1  
$EndComp
Text HLabel 10250 3050 2    50   BiDi ~ 0
IO18
Text HLabel 10250 3150 2    50   BiDi ~ 0
IO19
Text HLabel 10250 3250 2    50   BiDi ~ 0
IO21
Text HLabel 10250 3350 2    50   BiDi ~ 0
IO22
Text HLabel 10250 3450 2    50   BiDi ~ 0
IO23
Text HLabel 10250 3550 2    50   BiDi ~ 0
IO25
Text HLabel 10250 3650 2    50   BiDi ~ 0
IO26
Text HLabel 10250 3750 2    50   BiDi ~ 0
IO27
Text HLabel 10250 3850 2    50   BiDi ~ 0
IO32
Text HLabel 10250 3950 2    50   BiDi ~ 0
IO33
Text HLabel 10250 4050 2    50   Input ~ 0
I34
Text HLabel 10250 4150 2    50   Input ~ 0
I35
Wire Wire Line
	10250 3050 9800 3050
Wire Wire Line
	10250 3150 9800 3150
Wire Wire Line
	9800 3250 10250 3250
Wire Wire Line
	10250 3350 9800 3350
Wire Wire Line
	9800 3450 10250 3450
Wire Wire Line
	10250 3550 9800 3550
Wire Wire Line
	9800 3650 10250 3650
Wire Wire Line
	10250 3750 9800 3750
Wire Wire Line
	9800 3850 10250 3850
Wire Wire Line
	10250 3950 9800 3950
Wire Wire Line
	9800 4050 10250 4050
Wire Wire Line
	10250 4150 9800 4150
Text HLabel 7600 2950 0    50   BiDi ~ 0
IO04
Text HLabel 7600 3050 0    50   BiDi ~ 0
IO05
Wire Wire Line
	4000 2150 4600 2150
Wire Wire Line
	4000 2050 4600 2050
Text Label 4600 2150 2    50   ~ 0
TXD0
Text Label 4600 2050 2    50   ~ 0
RXD0
Wire Wire Line
	3550 2750 3900 2750
Wire Wire Line
	3550 2850 3800 2850
Wire Wire Line
	3800 2850 3800 3050
Wire Wire Line
	3800 3450 3950 3450
$Comp
L Device:R_Small R305
U 1 1 5F308AA0
P 4050 2750
F 0 "R305" V 3854 2750 50  0000 C CNN
F 1 "1k" V 3945 2750 50  0000 C CNN
F 2 "Resistor_SMD:R_0603_1608Metric" H 4050 2750 50  0001 C CNN
F 3 "~" H 4050 2750 50  0001 C CNN
F 4 "" H 4050 2750 50  0001 C CNN "DNP"
F 5 "" H 4050 2750 50  0001 C CNN "Partnumber"
F 6 "RS-Components" H 4050 2750 50  0001 C CNN "Supplier"
	1    4050 2750
	0    1    1    0   
$EndComp
Wire Wire Line
	4150 2750 4200 2750
$Comp
L Device:R_Small R308
U 1 1 5F30A4AD
P 4050 3450
F 0 "R308" V 3854 3450 50  0000 C CNN
F 1 "1k" V 3945 3450 50  0000 C CNN
F 2 "Resistor_SMD:R_0603_1608Metric" H 4050 3450 50  0001 C CNN
F 3 "~" H 4050 3450 50  0001 C CNN
F 4 "" H 4050 3450 50  0001 C CNN "DNP"
F 5 "" H 4050 3450 50  0001 C CNN "Partnumber"
F 6 "RS-Components" H 4050 3450 50  0001 C CNN "Supplier"
	1    4050 3450
	0    1    1    0   
$EndComp
Wire Wire Line
	4150 3450 4200 3450
Wire Wire Line
	4500 2950 4500 3050
Wire Wire Line
	4500 3050 3800 3050
Connection ~ 3800 3050
Wire Wire Line
	3800 3050 3800 3450
Wire Wire Line
	3900 2750 3900 3150
Wire Wire Line
	3900 3150 4500 3150
Wire Wire Line
	4500 3150 4500 3250
Connection ~ 3900 2750
Wire Wire Line
	3900 2750 3950 2750
Wire Wire Line
	4500 2550 4500 2500
Wire Wire Line
	4500 2250 4950 2250
Wire Wire Line
	4500 3650 4500 3700
Wire Wire Line
	4500 3950 4950 3950
Text HLabel 7600 2350 0    50   Input ~ 0
I36
Text HLabel 7600 2500 0    50   Input ~ 0
I39
Wire Wire Line
	8050 2350 7600 2350
Wire Wire Line
	8050 2500 7600 2500
Text Label 3600 2850 0    50   ~ 0
RTS
Text Label 3600 2750 0    50   ~ 0
DTR
$Comp
L Interface_USB:CH340C U301
U 1 1 5F97ED39
P 3150 2450
F 0 "U301" H 2900 3000 50  0000 C CNN
F 1 "CH340C" H 3300 1900 50  0000 C CNN
F 2 "Package_SO:SOIC-16_3.9x9.9mm_P1.27mm" H 3200 1900 50  0001 L CNN
F 3 "https://datasheet.lcsc.com/szlcsc/Jiangsu-Qin-Heng-CH340C_C84681.pdf" H 2800 3250 50  0001 C CNN
F 4 "" H 3150 2450 50  0001 C CNN "DNP"
F 5 "" H 3150 2450 50  0001 C CNN "Partnumber"
F 6 "" H 3150 2450 50  0001 C CNN "Supplier"
	1    3150 2450
	1    0    0    -1  
$EndComp
$Comp
L Device:R_Small R303
U 1 1 5F989AC4
P 3900 2150
F 0 "R303" V 3850 2050 50  0000 R CNN
F 1 "220R" V 3850 2250 50  0000 L CNN
F 2 "Resistor_SMD:R_0603_1608Metric" H 3900 2150 50  0001 C CNN
F 3 "~" H 3900 2150 50  0001 C CNN
F 4 "" H 3900 2150 50  0001 C CNN "DNP"
F 5 "" H 3900 2150 50  0001 C CNN "Partnumber"
F 6 "RS-Components" H 3900 2150 50  0001 C CNN "Supplier"
	1    3900 2150
	0    1    1    0   
$EndComp
$Comp
L Device:R_Small R302
U 1 1 5F98AE53
P 3900 2050
F 0 "R302" V 3850 1950 50  0000 R CNN
F 1 "220R" V 3850 2150 50  0000 L CNN
F 2 "Resistor_SMD:R_0603_1608Metric" H 3900 2050 50  0001 C CNN
F 3 "~" H 3900 2050 50  0001 C CNN
F 4 "" H 3900 2050 50  0001 C CNN "DNP"
F 5 "" H 3900 2050 50  0001 C CNN "Partnumber"
F 6 "RS-Components" H 3900 2050 50  0001 C CNN "Supplier"
	1    3900 2050
	0    1    1    0   
$EndComp
Wire Wire Line
	3550 2050 3800 2050
Wire Wire Line
	3800 2150 3550 2150
$Comp
L Device:R_Small R309
U 1 1 5F9B9CB3
P 4500 3800
F 0 "R309" H 4441 3754 50  0000 R CNN
F 1 "220R" H 4441 3845 50  0000 R CNN
F 2 "Resistor_SMD:R_0603_1608Metric" H 4500 3800 50  0001 C CNN
F 3 "~" H 4500 3800 50  0001 C CNN
F 4 "" H 4500 3800 50  0001 C CNN "DNP"
F 5 "" H 4500 3800 50  0001 C CNN "Partnumber"
F 6 "RS-Components" H 4500 3800 50  0001 C CNN "Supplier"
	1    4500 3800
	-1   0    0    1   
$EndComp
Wire Wire Line
	4500 3900 4500 3950
$Comp
L power:GND #PWR0162
U 1 1 5F9BAEC9
P 3150 3050
F 0 "#PWR0162" H 3150 2800 50  0001 C CNN
F 1 "GND" H 3155 2877 50  0000 C CNN
F 2 "" H 3150 3050 50  0001 C CNN
F 3 "" H 3150 3050 50  0001 C CNN
	1    3150 3050
	1    0    0    -1  
$EndComp
$Comp
L power:+3.3V #PWR0163
U 1 1 5F9BB894
P 3150 1400
F 0 "#PWR0163" H 3150 1250 50  0001 C CNN
F 1 "+3.3V" H 3165 1573 50  0000 C CNN
F 2 "" H 3150 1400 50  0001 C CNN
F 3 "" H 3150 1400 50  0001 C CNN
	1    3150 1400
	1    0    0    -1  
$EndComp
Wire Wire Line
	3150 1400 3150 1450
Wire Wire Line
	3050 1850 3050 1800
Wire Wire Line
	3050 1800 3150 1800
Connection ~ 3150 1800
Wire Wire Line
	3150 1800 3150 1850
$Comp
L Device:C_Small C302
U 1 1 5F9C745A
P 3650 1600
F 0 "C302" H 3742 1646 50  0000 L CNN
F 1 "100n" H 3742 1555 50  0000 L CNN
F 2 "Capacitor_SMD:C_0603_1608Metric" H 3650 1600 50  0001 C CNN
F 3 "~" H 3650 1600 50  0001 C CNN
F 4 "" H 3650 1600 50  0001 C CNN "DNP"
F 5 "133-5641" H 3650 1600 50  0001 C CNN "Partnumber"
F 6 "RS-Components" H 3650 1600 50  0001 C CNN "Supplier"
	1    3650 1600
	1    0    0    -1  
$EndComp
$Comp
L Device:C_Small C301
U 1 1 5F9C7460
P 3250 1600
F 0 "C301" H 3342 1646 50  0000 L CNN
F 1 "2.2u" H 3342 1555 50  0000 L CNN
F 2 "Capacitor_SMD:C_0603_1608Metric" H 3250 1600 50  0001 C CNN
F 3 "~" H 3250 1600 50  0001 C CNN
F 4 "" H 3250 1600 50  0001 C CNN "DNP"
F 5 "" H 3250 1600 50  0001 C CNN "Partnumber"
F 6 "RS-Components" H 3250 1600 50  0001 C CNN "Supplier"
	1    3250 1600
	1    0    0    -1  
$EndComp
$Comp
L power:GND #PWR0164
U 1 1 5F9CAB8E
P 3250 1700
F 0 "#PWR0164" H 3250 1450 50  0001 C CNN
F 1 "GND" H 3255 1527 50  0000 C CNN
F 2 "" H 3250 1700 50  0001 C CNN
F 3 "" H 3250 1700 50  0001 C CNN
	1    3250 1700
	1    0    0    -1  
$EndComp
$Comp
L power:GND #PWR0165
U 1 1 5F9CB456
P 3650 1700
F 0 "#PWR0165" H 3650 1450 50  0001 C CNN
F 1 "GND" H 3655 1527 50  0000 C CNN
F 2 "" H 3650 1700 50  0001 C CNN
F 3 "" H 3650 1700 50  0001 C CNN
	1    3650 1700
	1    0    0    -1  
$EndComp
Wire Wire Line
	3150 1450 3250 1450
Wire Wire Line
	3650 1450 3650 1500
Connection ~ 3150 1450
Wire Wire Line
	3150 1450 3150 1800
Wire Wire Line
	3250 1500 3250 1450
Connection ~ 3250 1450
Wire Wire Line
	3250 1450 3650 1450
Wire Wire Line
	8050 2750 7600 2750
Text Label 7600 2750 0    50   ~ 0
IO00
Wire Wire Line
	8050 3150 7950 3150
Wire Wire Line
	8050 3250 7850 3250
Text HLabel 7600 3150 0    50   BiDi ~ 0
IO12
Text HLabel 7600 3250 0    50   BiDi ~ 0
IO13
Text HLabel 7600 2750 0    50   BiDi ~ 0
IO00
NoConn ~ 2750 2150
NoConn ~ 3550 2350
NoConn ~ 3550 2450
NoConn ~ 3550 2550
NoConn ~ 3550 2650
Text Label 4950 3950 2    50   ~ 0
IO00
Text HLabel 7600 2150 0    50   Input ~ 0
~RESET
Text Label 7650 2150 0    50   ~ 0
~RESET
Text Label 4950 2250 2    50   ~ 0
~RESET
Wire Wire Line
	7600 2850 8050 2850
Wire Wire Line
	8050 3350 7750 3350
Wire Wire Line
	8050 3450 7650 3450
Text HLabel 7600 2850 0    50   BiDi ~ 0
IO02
Text HLabel 7600 3350 0    50   BiDi ~ 0
IO14
Text HLabel 7600 3450 0    50   BiDi ~ 0
IO15
$Comp
L Device:R_Small R304
U 1 1 5F51F39C
P 4500 2400
F 0 "R304" H 4441 2354 50  0000 R CNN
F 1 "220R" H 4441 2445 50  0000 R CNN
F 2 "Resistor_SMD:R_0603_1608Metric" H 4500 2400 50  0001 C CNN
F 3 "~" H 4500 2400 50  0001 C CNN
F 4 "" H 4500 2400 50  0001 C CNN "DNP"
F 5 "" H 4500 2400 50  0001 C CNN "Partnumber"
F 6 "RS-Components" H 4500 2400 50  0001 C CNN "Supplier"
	1    4500 2400
	-1   0    0    1   
$EndComp
Wire Wire Line
	4500 2300 4500 2250
Wire Wire Line
	2750 2350 2500 2350
Wire Wire Line
	2750 2450 2500 2450
Text HLabel 2500 2350 0    50   BiDi ~ 0
D+
Text HLabel 2500 2450 0    50   BiDi ~ 0
D-
$Comp
L Switch:SW_Push SW301
U 1 1 5F58D12D
P 3300 5100
F 0 "SW301" H 3300 5385 50  0000 C CNN
F 1 "boot" H 3300 5294 50  0000 C CNN
F 2 "Button_Switch_SMD:SW_SPST_B3U-1000P" H 3300 5300 50  0001 C CNN
F 3 "~" H 3300 5300 50  0001 C CNN
F 4 "419-867" H 3300 5100 50  0001 C CNN "Partnumber"
F 5 "RS-Components" H 3300 5100 50  0001 C CNN "Supplier"
	1    3300 5100
	1    0    0    -1  
$EndComp
Wire Wire Line
	3850 5100 4300 5100
Text Label 4300 5100 2    50   ~ 0
IO00
$Comp
L power:GND #PWR0166
U 1 1 5F590E01
P 3000 6150
F 0 "#PWR0166" H 3000 5900 50  0001 C CNN
F 1 "GND" H 3005 5977 50  0000 C CNN
F 2 "" H 3000 6150 50  0001 C CNN
F 3 "" H 3000 6150 50  0001 C CNN
	1    3000 6150
	1    0    0    -1  
$EndComp
Wire Wire Line
	3100 5900 3000 5900
Wire Wire Line
	3000 5900 3000 6150
Wire Wire Line
	3100 5100 3000 5100
Wire Wire Line
	3000 5100 3000 5900
Connection ~ 3000 5900
Text Label 4300 5900 2    50   ~ 0
~RESET
$Comp
L Switch:SW_Push SW302
U 1 1 5F58E411
P 3300 5900
F 0 "SW302" H 3300 6185 50  0000 C CNN
F 1 "reset" H 3300 6094 50  0000 C CNN
F 2 "Button_Switch_SMD:SW_SPST_B3U-1000P" H 3300 6100 50  0001 C CNN
F 3 "~" H 3300 6100 50  0001 C CNN
F 4 "419-867" H 3300 5900 50  0001 C CNN "Partnumber"
F 5 "RS-Components" H 3300 5900 50  0001 C CNN "Supplier"
	1    3300 5900
	1    0    0    -1  
$EndComp
$Comp
L Device:R_Small R312
U 1 1 5F5A4F43
P 3850 4950
F 0 "R312" H 3791 4904 50  0000 R CNN
F 1 "1k" H 3791 4995 50  0000 R CNN
F 2 "Resistor_SMD:R_0603_1608Metric" H 3850 4950 50  0001 C CNN
F 3 "~" H 3850 4950 50  0001 C CNN
F 4 "" H 3850 4950 50  0001 C CNN "DNP"
F 5 "" H 3850 4950 50  0001 C CNN "Partnumber"
F 6 "RS-Components" H 3850 4950 50  0001 C CNN "Supplier"
	1    3850 4950
	-1   0    0    1   
$EndComp
Wire Wire Line
	7600 2150 8050 2150
$Comp
L power:+3.3V #PWR0167
U 1 1 5F5B5E8A
P 3850 4850
F 0 "#PWR0167" H 3850 4700 50  0001 C CNN
F 1 "+3.3V" H 3865 5023 50  0000 C CNN
F 2 "" H 3850 4850 50  0001 C CNN
F 3 "" H 3850 4850 50  0001 C CNN
	1    3850 4850
	1    0    0    -1  
$EndComp
Wire Wire Line
	3850 5050 3850 5100
Connection ~ 3850 5100
Wire Wire Line
	3500 5100 3600 5100
Wire Wire Line
	3500 5900 3600 5900
Wire Wire Line
	7600 2950 8050 2950
Wire Wire Line
	7600 3050 8050 3050
$Comp
L Device:C_Small C305
U 1 1 60017496
P 3600 5250
F 0 "C305" H 3692 5296 50  0000 L CNN
F 1 "100n" H 3692 5205 50  0000 L CNN
F 2 "Capacitor_SMD:C_0603_1608Metric" H 3600 5250 50  0001 C CNN
F 3 "~" H 3600 5250 50  0001 C CNN
F 4 "" H 3600 5250 50  0001 C CNN "DNP"
F 5 "133-5641" H 3600 5250 50  0001 C CNN "Partnumber"
F 6 "RS-Components" H 3600 5250 50  0001 C CNN "Supplier"
	1    3600 5250
	1    0    0    -1  
$EndComp
$Comp
L Device:C_Small C306
U 1 1 6001795B
P 3600 6050
F 0 "C306" H 3692 6096 50  0000 L CNN
F 1 "100n" H 3692 6005 50  0000 L CNN
F 2 "Capacitor_SMD:C_0603_1608Metric" H 3600 6050 50  0001 C CNN
F 3 "~" H 3600 6050 50  0001 C CNN
F 4 "" H 3600 6050 50  0001 C CNN "DNP"
F 5 "133-5641" H 3600 6050 50  0001 C CNN "Partnumber"
F 6 "RS-Components" H 3600 6050 50  0001 C CNN "Supplier"
	1    3600 6050
	1    0    0    -1  
$EndComp
$Comp
L power:GND #PWR0168
U 1 1 6001A5C7
P 3600 6150
F 0 "#PWR0168" H 3600 5900 50  0001 C CNN
F 1 "GND" H 3605 5977 50  0000 C CNN
F 2 "" H 3600 6150 50  0001 C CNN
F 3 "" H 3600 6150 50  0001 C CNN
	1    3600 6150
	1    0    0    -1  
$EndComp
$Comp
L power:GND #PWR0169
U 1 1 6001A9A7
P 3600 5350
F 0 "#PWR0169" H 3600 5100 50  0001 C CNN
F 1 "GND" H 3605 5177 50  0000 C CNN
F 2 "" H 3600 5350 50  0001 C CNN
F 3 "" H 3600 5350 50  0001 C CNN
	1    3600 5350
	1    0    0    -1  
$EndComp
Wire Wire Line
	3600 5950 3600 5900
Connection ~ 3600 5900
Wire Wire Line
	3600 5900 4300 5900
Wire Wire Line
	3600 5150 3600 5100
Connection ~ 3600 5100
Wire Wire Line
	3600 5100 3850 5100
$Comp
L Connector_Generic:Conn_01x06 J301
U 1 1 603D7BF7
P 6950 4050
F 0 "J301" H 6868 4467 50  0000 C CNN
F 1 "JTAG" H 6868 4376 50  0000 C CNN
F 2 "Connector:Tag-Connect_TC2030-IDC-NL_2x03_P1.27mm_Vertical" H 6950 4050 50  0001 C CNN
F 3 "~" H 6950 4050 50  0001 C CNN
	1    6950 4050
	-1   0    0    -1  
$EndComp
$Comp
L power:+3.3V #PWR0243
U 1 1 603D8A93
P 7350 4250
F 0 "#PWR0243" H 7350 4100 50  0001 C CNN
F 1 "+3.3V" V 7365 4378 50  0000 L CNN
F 2 "" H 7350 4250 50  0001 C CNN
F 3 "" H 7350 4250 50  0001 C CNN
	1    7350 4250
	0    1    1    0   
$EndComp
$Comp
L power:GND #PWR0244
U 1 1 603D9329
P 7250 4450
F 0 "#PWR0244" H 7250 4200 50  0001 C CNN
F 1 "GND" H 7255 4277 50  0000 C CNN
F 2 "" H 7250 4450 50  0001 C CNN
F 3 "" H 7250 4450 50  0001 C CNN
	1    7250 4450
	1    0    0    -1  
$EndComp
Wire Wire Line
	7150 4350 7250 4350
Wire Wire Line
	7250 4350 7250 4450
Wire Wire Line
	7350 4250 7150 4250
Wire Wire Line
	7650 3850 7650 3450
Connection ~ 7650 3450
Wire Wire Line
	7650 3450 7600 3450
Text Label 7250 3850 0    50   ~ 0
tdo
Text Label 7250 4050 0    50   ~ 0
tck
Text Label 7250 4150 0    50   ~ 0
tdi
Text Label 7250 3950 0    50   ~ 0
tms
Wire Wire Line
	7750 3350 7750 3950
Connection ~ 7750 3350
Wire Wire Line
	7750 3350 7600 3350
Connection ~ 7850 3250
Wire Wire Line
	7850 3250 7600 3250
Wire Wire Line
	7150 3850 7650 3850
Connection ~ 7950 3150
Wire Wire Line
	7950 3150 7600 3150
$Comp
L Transistor_BJT:BC848 Q301
U 1 1 6043E4F8
P 4400 2750
F 0 "Q301" H 4591 2796 50  0000 L CNN
F 1 "BC848" H 4591 2705 50  0000 L CNN
F 2 "Package_TO_SOT_SMD:SOT-23" H 4600 2675 50  0001 L CIN
F 3 "http://www.infineon.com/dgdl/Infineon-BC847SERIES_BC848SERIES_BC849SERIES_BC850SERIES-DS-v01_01-en.pdf?fileId=db3a304314dca389011541d4630a1657" H 4400 2750 50  0001 L CNN
	1    4400 2750
	1    0    0    -1  
$EndComp
$Comp
L Transistor_BJT:BC848 Q302
U 1 1 6043F788
P 4400 3450
F 0 "Q302" H 4591 3404 50  0000 L CNN
F 1 "BC848" H 4591 3495 50  0000 L CNN
F 2 "Package_TO_SOT_SMD:SOT-23" H 4600 3375 50  0001 L CIN
F 3 "http://www.infineon.com/dgdl/Infineon-BC847SERIES_BC848SERIES_BC849SERIES_BC850SERIES-DS-v01_01-en.pdf?fileId=db3a304314dca389011541d4630a1657" H 4400 3450 50  0001 L CNN
	1    4400 3450
	1    0    0    1   
$EndComp
Wire Wire Line
	7850 3250 7850 4050
Wire Wire Line
	7150 4050 7850 4050
Wire Wire Line
	7150 3950 7750 3950
Wire Wire Line
	7150 4150 7950 4150
Wire Wire Line
	7950 3150 7950 4150
$EndSCHEMATC
